POLISCI 218X Assignment 1
…
## 
##  Column specification 
## cols(
##   ZIPCODE = col_double(),
##   MONTH = col_double(),
##   YEAR = col_double(),
##   CUSTOMERCLASS = col_character(),
##   COMBINED = col_character(),
##   TOTALCUSTOMERS = col_number(),
##   TOTALKWH = col_number(),
##   AVERAGEKWH = col_number()
## )

## # A tibble: 112,554 x 8
##    ZIPCODE MONTH  YEAR CUSTOMERCLASS COMBINED TOTALCUSTOMERS TOTALKWH AVERAGEKWH
##      <dbl> <dbl> <dbl> <chr>         <chr>             <dbl>    <dbl>      <dbl>
##  1   93117     1  2017 Elec- Agricu Y                     0        0         NA
##  2   93117     2  2017 Elec- Agricu Y                     0        0         NA
##  3   93117     3  2017 Elec- Agricu Y                     0        0         NA
##  4   93203     1  2017 Elec- Agricu Y                     0        0         NA
##  5   93203     2  2017 Elec- Agricu Y                     0        0         NA
##  6   93203     3  2017 Elec- Agricu Y                   158  5041211      31906
##  7   93204     1  2017 Elec- Agricu Y                     0        0         NA
##  8   93204     2  2017 Elec- Agricu Y                     0        0         NA
##  9   93204     3  2017 Elec- Agricu Y                     0        0         NA
## 10   93206     1  2017 Elec- Agricu Y                   302  8809508      29171
## #  with 112,544 more rows
…
